com\lh\cif\iam\service\MetaDataAccessControlService.class
com\lh\cif\admin\service\MasterDataService$1.class
com\lh\cif\iam\service\CachedObject.class
com\lh\cif\iam\service\CacheManager.class
com\lh\cif\search\model\entity\DocumentComments.class
com\lh\cif\core\web\GlobalExceptionControllerAdvice.class
com\lh\cif\gsuite\directory\MembersDirectoryService.class
com\lh\cif\core\filter\security\util\UserRoleDecisionUtil.class
com\lh\cif\search\model\entity\DocumentLikes.class
com\lh\cif\gsuite\drive\DriveService$2.class
com\lh\cif\gsuite\script\ScriptService.class
com\lh\cif\config\AppEnvironment.class
com\lh\cif\admin\model\entity\MasterData.class
com\lh\cif\gsuite\directory\GenericDirectoryService.class
com\lh\cif\gsuite\util\RetrybleService$2.class
com\lh\cif\search\model\dao\DocumentCommentsDAO.class
com\lh\cif\propmanager\config\AConfiguration.class
com\lh\cif\core\interceptor\RequestInterceptor.class
com\lh\cif\config\Config$Keys.class
com\lh\cif\core\util\NameSpaceUtil.class
com\lh\cif\gsuite\contacts\ContactServiceBuilder.class
com\lh\cif\core\filter\CustomSitemeshFilter.class
com\lh\cif\gsuite\datastore\DatastoreWorker.class
com\lh\cif\gsuite\exception\RetryException.class
com\lh\cif\core\util\MailerUtils.class
com\lh\cif\constants\CIFUIConstants.class
com\lh\cif\iam\domain\dto\UserInfoSession.class
com\lh\cif\gsuite\directory\UsersDirectoryService$1.class
com\lh\cif\iam\domain\entity\RoleVsAction.class
com\lh\cif\search\model\dao\CIFDocumentDAO.class
com\lh\cif\iam\service\CacheServiceImpl.class
com\lh\cif\gsuite\drive\DriveService.class
com\lh\cif\gsuite\task\TaskQueueService.class
com\lh\cif\core\repository\GenericDao.class
com\lh\cif\core\domain\dto\ResultDto.class
com\lh\cif\gsuite\spreadsheet\SpreadsheetReader.class
com\lh\cif\gsuite\directory\DirectoryService.class
com\lh\cif\core\filter\RegisterFilter.class
com\lh\cif\iam\service\MetaDataAccessControlServiceImpl.class
com\lh\cif\search\model\entity\DocumentLikesDTO.class
com\lh\cif\search\web\CIFDocumentUIController.class
com\lh\cif\admin\service\MasterDataService.class
com\lh\cif\iam\service\IMSUserService.class
com\lh\cif\search\model\entity\UploadFileSourceDataDTO.class
com\lh\cif\core\filter\RemoteFilter.class
com\lh\cif\search\service\SearchService.class
com\lh\cif\search\web\SearchRest.class
com\lh\cif\core\exception\CustomGenericException.class
com\lh\cif\core\exception\RestException.class
com\lh\cif\core\interceptor\SessionInterceptor.class
com\lh\cif\iam\web\IAMRest.class
com\lh\cif\core\domain\dto\ErrorMessage.class
com\lh\cif\gsuite\util\RetrybleService.class
com\lh\cif\search\web\CIFDocumentRest.class
com\lh\cif\search\model\dao\DocumentLikesDAOImpl.class
com\lh\cif\core\util\DateTimeHelper.class
com\lh\cif\core\filter\CacheControlFilter.class
com\lh\cif\iam\respository\MetaDataAccessControlDAO.class
com\lh\cif\search\model\entity\CIFDocumentDTO.class
com\lh\cif\gsuite\drive\DriveService$1.class
com\lh\cif\iam\respository\MetaDataAccessControlDAOImpl.class
com\lh\cif\iam\service\OpcoLocaleServiceImpl.class
com\lh\cif\gsuite\datastore\AlsoRegister.class
com\lh\cif\gsuite\email\EmailService.class
com\lh\cif\admin\web\AdminRest.class
com\lh\cif\gsuite\drive\DriveService$3.class
com\lh\cif\propmanager\service\SyncWorkerTask.class
com\lh\cif\search\service\SearchedCIFDocument.class
com\lh\cif\core\domain\dto\LegacyRoutingDecision.class
com\lh\cif\core\domain\dto\DocumentSearchDto.class
com\lh\cif\iam\service\CacheService.class
com\lh\cif\gsuite\directory\GroupsDirectoryService.class
com\lh\cif\core\interceptor\NamespaceInterceptor.class
com\lh\cif\iam\respository\RoleVsActionDAO.class
com\lh\cif\iam\respository\OpcoLocaleDAO.class
com\lh\cif\iam\service\Cacheable.class
com\lh\cif\gsuite\directory\DomainsDirectoryService.class
com\lh\cif\gsuite\drive\DriveBuilder.class
com\lh\cif\admin\model\dao\MasterDataDao.class
com\lh\cif\search\web\IndexController.class
com\lh\cif\gsuite\search\DocumentSearchService.class
com\lh\cif\gsuite\util\RetrybleService$4.class
com\lh\cif\core\facade\CommandBase.class
com\lh\cif\search\model\entity\DocumentCommentsDTO.class
com\lh\cif\gsuite\task\RetriableTask.class
com\lh\cif\iam\domain\entity\MetaDataAccessControl.class
com\lh\cif\propmanager\config\PropManagerConfig$Keys.class
com\lh\cif\core\filter\security\AuthenticationFilter.class
com\lh\cif\iam\service\UserInfoService.class
com\lh\cif\search\model\dao\DocumentCommentsDAOImpl.class
com\lh\cif\gsuite\util\RetrybleService$1.class
com\lh\cif\core\exception\InvalidRequestException.class
com\lh\cif\core\util\ConfigUtils.class
com\lh\cif\core\domain\dto\QueryParametersDto.class
com\lh\cif\gsuite\directory\UsersDirectoryService.class
com\lh\cif\config\Config.class
com\lh\cif\gsuite\script\ScriptBuilder.class
com\lh\cif\core\domain\dto\Response.class
com\lh\cif\iam\service\UserInfoServiceImpl.class
com\lh\cif\core\util\CustomObjectMapper.class
com\lh\cif\search\model\dao\DocumentLikesDAO.class
com\lh\cif\core\filter\CustomXmlWebApplicationContext.class
com\lh\cif\gsuite\GsuiteManager.class
com\lh\cif\propmanager\web\UpdateConfigurationServlet.class
com\lh\cif\iam\service\RoleVsActionServiceImpl.class
com\lh\cif\iam\service\RoleVsActionService.class
com\lh\cif\propmanager\service\SynchronizeSheets.class
com\lh\cif\search\model\entity\CIFDocument.class
com\lh\cif\iam\service\IMSGroupService.class
com\lh\cif\search\model\dao\RecordDAOImpl.class
com\lh\cif\iam\domain\entity\OpcoLocalDetails.class
com\lh\cif\core\filter\security\util\UserInfoUtil.class
com\lh\cif\gsuite\auth\OAuth2Service.class
com\lh\cif\iam\service\OpcoLocaleService.class
com\lh\cif\propmanager\config\PropManagerConfig.class
com\lh\cif\gsuite\plus\PlusBuilder.class
com\lh\cif\config\AppConfig.class
com\lh\cif\iam\respository\RoleVsActionDAOImpl.class
com\lh\cif\admin\model\dao\MasterDataDTO.class
com\lh\cif\core\service\GenericService.class
com\lh\cif\gsuite\auth\AuthException.class
com\lh\cif\iam\respository\OpcoLocaleDAOImpl.class
com\lh\cif\gsuite\contacts\UserContactsService.class
com\lh\cif\admin\web\AdminUIController.class
com\lh\cif\gsuite\util\RetrybleService$3.class
com\lh\cif\core\domain\dto\GenericRequestDto.class
com\lh\cif\gsuite\plus\PlusService.class
com\lh\cif\admin\model\dao\MasterDataDaoImpl.class
com\lh\cif\gsuite\contacts\UserAndGroupsSearch.class
